강릉 강수량: ARIMA , Gamma GLM(계절더미) + deviance residual 이상치
…
cat("\n==== Outlier (|r_dev_std| 큰 순) ====\n")

## 
## ==== Outlier (|r_dev_std| 큰 순) ====

print(
  df_pos_out %>%
    dplyr::arrange(desc(abs(r_dev_std))) %>%
    dplyr::select(date, precip, fitted_glm, r_dev, r_dev_std, out_type) 
)

## # A tibble: 329 × 6
##    date       precip fitted_glm r_dev r_dev_std out_type
##    <date>      <dbl>      <dbl> <dbl>     <dbl> <chr>   
##  1 2005-12-01    0.1       35.7 -3.12     -3.70 LOW     
##  2 2020-10-01    0.6      124.  -2.95     -3.48 LOW     
##  3 2002-11-01    0.4       73.1 -2.90     -3.43 LOW     
##  4 2023-12-01  229.        35.7  2.67      3.16 HIGH    
##  5 2014-12-01    0.4       35.7 -2.65     -3.13 LOW     
##  6 2022-02-01    1.2       52.2 -2.36     -2.80 LOW     
##  7 2020-12-01    0.9       35.7 -2.33     -2.75 LOW     
##  8 2007-12-01    1.5       35.7 -2.10     -2.49 LOW     
##  9 2015-11-01  349.        73.1  2.10      2.49 HIGH    
## 10 2015-05-01    3.1       73.1 -2.10     -2.48 LOW     
## # ℹ 319 more rows
…
